{"tracks": {"previous": null, "limit": 1, "items": [{"popularity": 80, "type": "track", "uri": "spotify:track:2A69wys3S9uiPSmn6UZWJn", "available_markets": ["AD", "AR", "AT", "AU", "BE", "BG", "BO", "BR", "CA", "CH", "CL", "CO", "CR", "CY", "CZ", "DE", "DK", "DO", "EC", "EE", "ES", "FI", "FR", "GB", "GR", "GT", "HK", "HN", "HU", "ID", "IE", "IS", "IT", "JP", "LI", "LT", "LU", "LV", "MC", "MT", "MX", "MY", "NI", "NL", "NO", "NZ", "PA", "PE", "PH", "PL", "PT", "PY", "SE", "SG", "SK", "SV", "TH", "TR", "TW", "US", "UY"], "duration_ms": 184080, "preview_url": "https://p.scdn.co/mp3-preview/359e57ee6223012c21e12eeb5ad310a72cfb8cd3?cid=58a4cf7549014e37a775cc19ce2fcb68", "artists": [{"name": "Old Dominion", "uri": "spotify:artist:6y8XlgIV8BLlIg1tT1R10i", "external_urls": {"spotify": "https://open.spotify.com/artist/6y8XlgIV8BLlIg1tT1R10i"}, "type": "artist", "id": "6y8XlgIV8BLlIg1tT1R10i", "href": "https://api.spotify.com/v1/artists/6y8XlgIV8BLlIg1tT1R10i"}], "external_urls": {"spotify": "https://open.spotify.com/track/2A69wys3S9uiPSmn6UZWJn"}, "href": "https://api.spotify.com/v1/tracks/2A69wys3S9uiPSmn6UZWJn", "name": "Written in the Sand", "track_number": 6, "disc_number": 1, "external_ids": {"isrc": "USRN11700017"}, "explicit": false, "id": "2A69wys3S9uiPSmn6UZWJn", "album": {"available_markets": ["AD", "AR", "AT", "AU", "BE", "BG", "BO", "BR", "CA", "CH", "CL", "CO", "CR", "CY", "CZ", "DE", "DK", "DO", "EC", "EE", "ES", "FI", "FR", "GB", "GR", "GT", "HK", "HN", "HU", "ID", "IE", "IS", "IT", "JP", "LI", "LT", "LU", "LV", "MC", "MT", "MX", "MY", "NI", "NL", "NO", "NZ", "PA", "PE", "PH", "PL", "PT", "PY", "SE", "SG", "SK", "SV", "TH", "TR", "TW", "US", "UY"], "images": [{"width": 640, "height": 640, "url": "https://i.scdn.co/image/2587c8038a89b1d28f694c1df3adc44fce70b9c1"}, {"width": 300, "height": 300, "url": "https://i.scdn.co/image/c1bbbd32500602b2a95dcfb95598baca9570813c"}, {"width": 64, "height": 64, "url": "https://i.scdn.co/image/c31ae4f08f9f8cf7fd86ee22bcb149571e3aaf7b"}], "id": "66Y5XaoFSoa0A4P0u56s8V", "external_urls": {"spotify": "https://open.spotify.com/album/66Y5XaoFSoa0A4P0u56s8V"}, "album_type": "album", "href": "https://api.spotify.com/v1/albums/66Y5XaoFSoa0A4P0u56s8V", "name": "Happy Endings", "uri": "spotify:album:66Y5XaoFSoa0A4P0u56s8V", "artists": [{"name": "Old Dominion", "uri": "spotify:artist:6y8XlgIV8BLlIg1tT1R10i", "external_urls": {"spotify": "https://open.spotify.com/artist/6y8XlgIV8BLlIg1tT1R10i"}, "type": "artist", "id": "6y8XlgIV8BLlIg1tT1R10i", "href": "https://api.spotify.com/v1/artists/6y8XlgIV8BLlIg1tT1R10i"}], "type": "album", "release_date_precision": "day", "release_date": "2017-08-25"}}], "offset": 0, "total": 235957, "next": "https://api.spotify.com/v1/search?query=happy&type=track&market=US&offset=1&limit=1", "href": "https://api.spotify.com/v1/search?query=happy&type=track&market=US&offset=0&limit=1"}}